{
	"code": "DES",
	"symbolSrc": "extensions/deserts/symbol.png",
	"author": "Darathor",
	"features": [
		{
			"code": "PYR",
			"src": "extensions/deserts/features/PYR.png",
			"pawns": {
				"allowed": ["FOL", "SUP", "PHA", "WAG"]
			},
			"completion": [
				{
					"type": "diamond",
					"configuration": {
						"length": 2
					}
				}
			],
			"evaluationCompleted": [
				{
					"type": "fixed",
					"configuration": {
						"value": 13
					}
				},
				{
					"type": "diamond",
					"configuration": {
						"length": 2,
						"type": "features",
						"featureType": "OAS",
						"featureStatus": "any",
						"value": 2
					}
				}
			],
			"evaluationEnd": [
				{
					"type": "diamond",
					"configuration": {
						"length": 2,
						"type": "tiles",
						"value": 1
					}
				}
			]
		},
		{
			"code": "SPI",
			"src": "extensions/deserts/features/SPI.png",
			"pawns": {
				"allowed": ["FOL", "SUP", "PHA", "WAG"],
				"conditions": [
					{
						"type": "featureInZone",
						"not": true,
						"configuration": {
							"featureType": "SWO",
							"zone": {
								"type": "square",
								"size": 1
							}
						}
					}
				]
			},
			"completion": [
				{
					"type": "square",
					"configuration": {
						"length": 1
					}
				}
			],
			"evaluationCompleted": [
				{
					"type": "fixed",
					"configuration": {
						"value": 18
					}
				}
			],
			"evaluationEnd": [
				{
					"type": "square",
					"configuration": {
						"length": 1,
						"type": "tiles",
						"value": 1
					}
				}
			]
		},
		{
			"code": "SWO",
			"src": "extensions/deserts/features/SWO.png",
			"played": [
				{
					"type": "removePawns",
					"configuration": {
						"featureType": "SPI",
						"zone": {
							"type": "square",
							"size": 1
						},
						"evaluation": [
							{
								"type": "square",
								"configuration": {
									"length": 1,
									"type": "tiles",
									"value": 0.5
								}
							}
						]
					}
				}
			],
			"pawns": {
				"_allowed": ["FOL", "SUP", "PHA"]
			}
		},
		{
			"code": "DES",
			"src": "extensions/deserts/features/DES.png"
		},
		{
			"code": "OAS",
			"src": "extensions/deserts/features/OAS.png"
		}
	],
	"tiles": [
		{
			"code": "DES01",
			"src": "extensions/deserts/tiles/DES01.jpg",
			"features": [
				["FIE", 11, 11, [4, 7, 9]], ["FIE", 89, 11, [4, 5, 10]], ["FIE", 11, 89, [6, 7, 12]], ["FIE", 89, 89, [5, 6, 11]],
				["ROA", 51, 20, [0, 1, 8, 9, 10]], ["ROA", 82, 56, [1, 3, 8, 10, 11]], ["ROA", 60, 82, [2, 3, 8, 11, 12]],
				["ROA", 20, 59, [0, 2, 8, 9, 12]], ["OAS", 53, 52, [4, 5, 6, 7, 9, 10, 11, 12]], ["DES", 27, 27, [0, 4, 7, 8]],
				["DES", 77, 30, [1, 4, 5, 8]], ["DES", 81, 76, [3, 5, 6, 8]], ["DES", 32, 80, [2, 6, 7, 8]]
			],
			"sides": [[0, 4, 1], [1, 5, 3], [3, 6, 2], [2, 7, 0]]
		},
		{
			"code": "DES02",
			"src": "extensions/deserts/tiles/DES02.jpg",
			"features": [
				["FIE", 11, 11, [4, 11]], ["FIE", 89, 11, [4, 5, 9]], ["FIE", 11, 89, [4, 6, 10]], ["FIE", 89, 89, [5, 6, 8]],
				["ROA", 41, 25, [0, 1, 2, 7, 9, 10, 11]], ["ROA", 82, 56, [1, 3, 7, 8, 9]], ["ROA", 53, 82, [2, 3, 7, 8, 10]],
				["OAS", 52, 53, [4, 5, 6, 8, 9, 10]], ["DES", 72, 77, [3, 5, 6, 7]], ["DES", 68, 27, [1, 4, 5, 7]], ["DES", 26, 77, [2, 4, 6, 7]],
				["DES", 21, 24, [0, 4]]
			],
			"sides": [[0, 4, 1], [1, 5, 3], [3, 6, 2], [2, 4, 0]]
		},
		{
			"code": "DES03",
			"src": "extensions/deserts/tiles/DES03.jpg",
			"features": [
				["FIE", 11, 11, [4, 5, 8]], ["FIE", 89, 11, [4, 9]], ["FIE", 11, 89, [5, 10]], ["FIE", 89, 89, [4, 5, 7]],
				["ROA", 66, 24, [0, 1, 3, 6, 8, 9]], ["ROA", 41, 78, [0, 2, 3, 6, 7, 8, 10]], ["OAS", 54, 51, [4, 5, 7, 8]],
				["DES", 66, 79, [3, 5, 6]], ["DES", 34, 23, [0, 4, 5, 6]], ["DES", 78, 16, [1, 4]], ["DES", 20, 73, [2, 5]]
			],
			"sides": [[0, 4, 1], [1, 4, 3], [3, 5, 2], [2, 5, 0]]
		},
		{
			"code": "DES04",
			"src": "extensions/deserts/tiles/DES04.jpg",
			"features": [
				["FIE", 89, 11, [2, 3, 6]], ["FIE", 11, 89, [2, 3, 5]], ["ROA", 84, 54, [0, 1, 4, 5, 6]], ["ROA", 16, 55, [0, 1, 4, 5, 6]],
				["OAS", 48, 52, [2, 3, 5, 6]], ["DES", 50, 78, [1, 2, 3, 4]], ["DES", 50, 23, [0, 2, 3, 4]]
			],
			"sides": [[0, 0, 0], [0, 2, 1], [1, 1, 1], [1, 3, 0]]
		},
		{
			"code": "DES05",
			"src": "extensions/deserts/tiles/DES05.jpg",
			"features": [
				["FIE", 89, 11, [2, 3, 6]], ["FIE", 11, 89, [2, 3, 4]], ["ROA", 17, 57, [0, 1, 4, 5, 6]], ["ROA", 63, 83, [0, 1, 4, 5, 6]],
				["DES", 40, 81, [1, 2, 3, 5]], ["OAS", 53, 56, [2, 3, 4, 6]], ["DES", 45, 23, [0, 2, 3, 5]]
			],
			"sides": [[0, 0, 0], [0, 0, 0], [0, 3, 1], [1, 2, 0]]
		},
		{
			"code": "DES06",
			"src": "extensions/deserts/tiles/DES06.jpg",
			"features": [
				["FIE", 89, 11, [3, 4, 5]], ["FIE", 11, 89, [3, 4, 8]], ["FIE", 89, 89, [4, 7]], ["ROA", 17, 52, [0, 1, 5, 6, 8]],
				["ROA", 53, 83, [0, 1, 2, 6, 7, 8]], ["DES", 45, 22, [0, 3, 6]], ["OAS", 52, 51, [3, 4, 5, 8]], ["DES", 75, 75, [2, 4]],
				["DES", 32, 73, [1, 3, 4, 6]]
			],
			"sides": [[0, 0, 0], [0, 4, 2], [2, 4, 1], [1, 3, 0]]
		},
		{
			"code": "DES07",
			"src": "extensions/deserts/tiles/DES07.jpg",
			"features": [
				["FIE", 11, 11, [3, 5, 9]], ["FIE", 89, 11, [3, 4, 6]], ["FIE", 11, 89, [4, 5, 8]], ["ROA", 57, 24, [0, 1, 6, 7, 9]],
				["ROA", 47, 82, [1, 2, 6, 7, 8]], ["ROA", 19, 51, [0, 2, 7, 8, 9]], ["DES", 73, 76, [1, 3, 4, 7]],
				["OAS", 52, 52, [3, 4, 5, 6, 8, 9]], ["DES", 27, 74, [2, 4, 5, 7]], ["DES", 30, 24, [0, 3, 5, 7]]
			],
			"sides": [[0, 3, 1], [1, 1, 1], [1, 4, 2], [2, 5, 0]]
		},
		{
			"code": "DES08",
			"src": "extensions/deserts/tiles/DES08.jpg",
			"sides": [[0, 0, 0], [0, 0, 0], [0, 1, 0], [0, 0, 0]],
			"features": [["FIE", 11, 11, [1, 3]], ["ROA", 54, 82, [0, 2, 3]], ["OAS", 52, 57, [1, 3]], ["DES", 66, 25, [0, 1, 2]]]
		},
		{
			"code": "DES09",
			"src": "extensions/deserts/tiles/DES09.jpg",
			"features": [["FIE", 11, 11, [3]], ["PYR", 63, 32, [2, 3]], ["PYR", 50, 57, [1, 3]], ["DES", 68, 78, [0, 1, 2]]],
			"sides": [[0, 0, 0], [0, 0, 0], [0, 0, 0], [0, 0, 0]]
		},
		{
			"code": "DES10",
			"src": "extensions/deserts/tiles/DES10.jpg",
			"features": [
				["FIE", 11, 11, [3, 4]], ["FIE", 89, 89, [3, 5]], ["PYR", 54, 35, [4]], ["ROA", 65, 80, [0, 1, 4, 5]], ["DES", 36, 61, [0, 2, 3]],
				["DES", 79, 84, [1, 3]]
			],
			"sides": [[0, 0, 0], [0, 3, 1], [1, 3, 0], [0, 0, 0]]
		},
		{
			"code": "DES11",
			"src": "extensions/deserts/tiles/DES11.jpg",
			"features": [
				["PYR", 51, 34, [1, 4]], ["PYR", 69, 54, [0, 2, 4]], ["PYR", 52, 67, [1, 4]], ["FIE", 13, 87, [4]], ["DES", 76, 17, [0, 1, 2, 3]]
			],
			"sides": [[3, 3, 3], [3, 3, 3], [3, 3, 3], [3, 3, 3]]
		},
		{
			"code": "DES12",
			"src": "extensions/deserts/tiles/DES12.jpg",
			"features": [
				["PYR", 49, 36, [5]], ["ROA", 13, 59, [3, 5, 6, 8, 9]], ["ROA", 66, 71, [3, 4, 5, 6, 7, 8, 9]], ["FIE", 87, 11, [1, 2, 5]],
				["FIE", 88, 86, [2, 7]], ["DES", 28, 21, [0, 1, 2, 3, 6]], ["OAS", 34, 72, [1, 2, 5, 8]], ["DES", 83, 70, [2, 4]],
				["DES", 31, 87, [1, 2, 6, 9]], ["FIE", 10, 88, [1, 2, 8]]
			],
			"sides": [[3, 3, 3], [3, 2, 4], [4, 2, 9], [9, 1, 3]]
		},
		{
			"code": "DES13",
			"src": "extensions/deserts/tiles/DES13.jpg",
			"features": [
				["FIE", 11, 11, [5, 7]], ["FIE", 87, 11, [4, 5, 8]], ["FIE", 14, 87, [4, 5, 8]], ["FIE", 88, 88, [4, 9]],
				["ROA", 77, 67, [1, 2, 3, 6, 8, 9]], ["ROA", 26, 35, [0, 1, 2, 7, 8]], ["PYR", 52, 46, [4, 8]], ["DES", 27, 10, [0, 5]],
				["DES", 71, 28, [1, 2, 4, 5, 6]], ["DES", 71, 86, [3, 4]]
			],
			"sides": [[0, 5, 1], [1, 4, 3], [3, 4, 2], [2, 5, 0]]
		},
		{
			"code": "DES14",
			"src": "extensions/deserts/tiles/DES14.jpg",
			"features": [
				["PYR", 52, 47, [1, 4]], ["ROA", 44, 74, [0, 2, 3, 4, 5]], ["FIE", 13, 87, [1, 5]], ["FIE", 88, 12, [1, 4]],
				["DES", 31, 24, [0, 1, 3]], ["DES", 67, 84, [1, 2]]
			],
			"sides": [[3, 3, 3], [3, 1, 2], [2, 2, 2], [2, 1, 3]]
		},
		{
			"code": "DES15",
			"src": "extensions/deserts/tiles/DES15.jpg",
			"features": [["PYR", 51, 45, [2, 3]], ["FIE", 13, 87, [2, 3]], ["ROA", 63, 78, [0, 1, 3]], ["DES", 72, 29, [0, 1, 2]]],
			"sides": [[1, 1, 1], [1, 1, 1], [1, 2, 1], [1, 1, 1]]
		},
		{
			"code": "DES16",
			"src": "extensions/deserts/tiles/DES16.jpg",
			"features": [
				["ROA", 32, 50, [2, 3, 4]], ["PYR", 58, 67, [4]], ["FIE", 11, 86, [0, 4]], ["OAS", 48, 27, [0, 4]], ["DES", 73, 39, [0, 1, 2, 3]]
			],
			"sides": [[2, 2, 2], [2, 2, 2], [2, 2, 2], [2, 0, 2]]
		},
		{
			"code": "DES17",
			"src": "extensions/deserts/tiles/DES17.jpg",
			"features": [["PYR", 48, 49, [3]], ["FIE", 11, 26, [2, 3]], ["MOU", 72, 81, [1, 3]], ["DES", 66, 28, [0, 1, 2]]],
			"sides": [[1, 1, 1], [2, 2, 2], [2, 2, 2], [1, 1, 1]]
		},
		{
			"code": "DES18",
			"src": "extensions/deserts/tiles/DES18.jpg",
			"features": [
				["MOU", 72, 76, [1, 2, 5]], ["FIE", 11, 21, [0, 3, 5]], ["FIE", 12, 73, [0, 3, 5]], ["ROA", 43, 53, [1, 2, 4, 5]],
				["OAS", 50, 33, [3, 5]], ["DES", 71, 17, [0, 1, 2, 3, 4]]
			],
			"sides": [[1, 1, 1], [0, 0, 0], [0, 0, 0], [2, 3, 1]]
		},
		{
			"code": "DES19",
			"src": "extensions/deserts/tiles/DES19.jpg",
			"features": [
				["PYR", 51, 49, [4]], ["MOU", 88, 83, [3, 4]], ["MOU", 90, 27, [3, 4]], ["FIE", 12, 10, [1, 2, 4]], ["DES", 40, 79, [0, 1, 2, 3]]
			],
			"sides": [[3, 3, 3], [2, 1, 1], [3, 3, 3], [3, 3, 3]]
		},
		{
			"code": "DES20",
			"src": "extensions/deserts/tiles/DES20.jpg",
			"features": [
				["ROA", 34, 34, [1, 2, 5, 7, 8, 9, 10]], ["FIE", 13, 11, [0, 9]], ["FIE", 74, 10, [0, 3, 8]], ["MOU", 90, 28, [2, 8]],
				["MOU", 89, 81, [8, 11]], ["FIE", 15, 87, [0, 6, 7]], ["ROA", 61, 82, [5, 7, 8, 10, 11]], ["DES", 40, 77, [0, 5, 6, 10]],
				["DES", 82, 51, [0, 2, 3, 4, 6, 10, 11]], ["DES", 32, 16, [0, 1]], ["OAS", 52, 53, [0, 6, 7, 8]], ["FIE", 75, 92, [4, 6, 8]]
			],
			"sides": [[1, 0, 2], [3, 4, 4], [11, 6, 5], [5, 0, 1]]
		},
		{
			"code": "DES21",
			"src": "extensions/deserts/tiles/DES21.jpg",
			"features": [["SWO", 54, 48, [3]], ["CIT", 81, 10, [2, 3]], ["FIE", 13, 86, [1, 3]], ["DES", 28, 35, [0, 1, 2]]],
			"sides": [[1, 1, 1], [2, 2, 2], [2, 2, 2], [2, 2, 2]]
		},
		{
			"code": "DES22",
			"src": "extensions/deserts/tiles/DES22.jpg",
			"features": [
				["SWO", 50, 42, [3]], ["CIT", 33, 10, [2, 3, 6]], ["FIE", 11, 88, [1, 3, 5]], ["DES", 36, 76, [0, 1, 2, 5, 6]],
				["FIE", 92, 63, [5, 7]], ["ROA", 68, 89, [2, 3, 4, 6, 7]], ["FIE", 91, 27, [1, 3, 5]], ["DES", 88, 88, [4, 5]]
			],
			"sides": [[1, 1, 1], [6, 5, 4], [4, 5, 2], [2, 2, 2]]
		},
		{
			"code": "DES23",
			"src": "extensions/deserts/tiles/DES23.jpg",
			"features": [["DES", 34, 74, [1, 2]], ["SWO", 55, 40, [0]], ["FIE", 11, 11, [0]]],
			"sides": [[2, 2, 2], [2, 2, 2], [2, 2, 2], [2, 2, 2]]
		},
		{
			"code": "DES24",
			"src": "extensions/deserts/tiles/DES24.jpg",
			"features": [
				["SWO", 59, 32, [5]], ["ROA", 25, 57, [2, 3, 4, 5]], ["FIE", 88, 10, [1, 5]], ["FIE", 13, 88, [1, 4]], ["DES", 77, 78, [1, 3]],
				["DES", 31, 23, [0, 1, 2]]
			],
			"sides": [[2, 2, 2], [2, 1, 3], [3, 3, 3], [3, 1, 2]]
		},
		{
			"code": "DES25",
			"src": "extensions/deserts/tiles/DES25.jpg",
			"features": [
				["SWO", 48, 42, [5]], ["CIT", 90, 34, [3, 4, 5]], ["CIT", 11, 64, [3, 4, 5]], ["FIE", 33, 89, [1, 2, 5]], ["FIE", 39, 9, [1, 2, 5]],
				["DES", 58, 79, [0, 1, 2, 3, 4]]
			],
			"sides": [[4, 4, 4], [1, 1, 1], [3, 3, 3], [2, 2, 2]]
		},
		{
			"code": "DES26",
			"src": "extensions/deserts/tiles/DES26.jpg",
			"features": [
				["SWO", 55, 51, [6]], ["CIT", 76, 9, [4, 5, 6]], ["CIT", 62, 89, [3, 5, 6, 7, 8]], ["FIE", 10, 71, [2, 7, 8]],
				["FIE", 12, 24, [1, 5, 6, 7]], ["FIE", 90, 39, [1, 2, 4, 6]], ["DES", 39, 32, [0, 1, 2, 4, 5, 7]], ["ROA", 10, 53, [2, 3, 4, 6, 8]],
				["DES", 26, 77, [2, 3, 7]]
			],
			"sides": [[1, 1, 1], [5, 5, 5], [2, 2, 2], [3, 7, 4]]
		},
		{
			"code": "DES27",
			"src": "extensions/deserts/tiles/DES27.jpg",
			"features": [
				["SWO", 33, 55, [5]], ["ROA", 85, 47, [3, 4, 5, 6, 7]], ["ROA", 49, 11, [3, 4, 5, 6, 7]], ["FIE", 15, 86, [1, 2, 5]],
				["FIE", 89, 11, [1, 2, 7]], ["DES", 67, 74, [0, 1, 2, 3, 6]], ["OAS", 66, 29, [1, 2, 5, 7]], ["DES", 70, 13, [1, 2, 4, 6]]
			],
			"sides": [[3, 2, 4], [4, 1, 3], [3, 3, 3], [3, 3, 3]]
		},
		{
			"code": "DES28",
			"src": "extensions/deserts/tiles/DES28.jpg",
			"features": [["SWO", 35, 15, [3]], ["PYR", 57, 67, [3]], ["FIE", 14, 85, [3]], ["DES", 73, 41, [0, 1, 2]]],
			"sides": [[2, 2, 2], [2, 2, 2], [2, 2, 2], [2, 2, 2]]
		},
		{
			"code": "DES29",
			"src": "extensions/deserts/tiles/DES29.jpg",
			"features": [
				["SPI", 54, 47, [7]], ["ROA", 58, 83, [2, 3, 5, 6, 7]], ["FIE", 12, 88, [1, 6]], ["FIE", 11, 26, [1, 4, 7]],
				["CIT", 76, 11, [3, 5, 7]], ["FIE", 89, 71, [1, 4, 7]], ["DES", 33, 85, [1, 2]], ["DES", 80, 47, [0, 1, 3, 4, 5]]
			],
			"sides": [[4, 4, 4], [5, 5, 5], [5, 1, 2], [2, 1, 3]]
		},
		{
			"code": "DES30",
			"src": "extensions/deserts/tiles/DES30.jpg",
			"features": [["SPI", 52, 48, [3]], ["CIT", 36, 11, [2, 3]], ["FIE", 11, 89, [1, 3]], ["DES", 70, 77, [0, 1, 2]]],
			"sides": [[1, 1, 1], [2, 2, 2], [2, 2, 2], [2, 2, 2]]
		},
		{
			"code": "DES31",
			"src": "extensions/deserts/tiles/DES31.jpg",
			"features": [
				["SPI", 54, 63, [6]], ["ROA", 51, 31, [2, 3, 4, 5, 6, 7, 8]], ["WEL", 34, 22, [1, 8]], ["FIE", 12, 10, [1, 8]],
				["FIE", 90, 22, [1, 7]], ["FIE", 13, 88, [1, 6]], ["DES", 31, 51, [0, 1, 5]], ["DES", 70, 20, [1, 4]], ["DES", 18, 29, [1, 2, 3]]
			],
			"sides": [[3, 1, 4], [4, 1, 5], [5, 5, 5], [5, 1, 3]]
		},
		{
			"code": "DES32",
			"src": "extensions/deserts/tiles/DES32.jpg",
			"features": [["PYR", 46, 62, [3]], ["SPI", 65, 35, [3]], ["FIE", 11, 88, [3]], ["DES", 35, 34, [0, 1, 2]]],
			"sides": [[2, 2, 2], [2, 2, 2], [2, 2, 2], [2, 2, 2]]
		},
		{
			"code": "DES33",
			"src": "extensions/deserts/tiles/DES33.jpg",
			"features": [
				["SPI", 63, 65, [7]], ["ROA", 31, 51, [2, 3, 4, 5, 6, 7, 8]], ["OAS", 42, 26, [1, 7, 8, 11]], ["FIE", 10, 18, [1, 8, 11]],
				["FIE", 10, 89, [1, 6]], ["FIE", 90, 86, [1, 7, 11]], ["DES", 23, 75, [1, 4]], ["DES", 65, 40, [0, 1, 2, 5, 11]],
				["DES", 20, 37, [1, 2, 3, 11]], ["DES", 89, 29, [10, 11]], ["FIE", 92, 8, [9, 11]], ["ROA", 68, 17, [2, 3, 5, 7, 8, 9, 10]]
			],
			"sides": [[3, 11, 10], [10, 11, 5], [5, 1, 4], [4, 1, 3]]
		},
		{
			"code": "DES34",
			"src": "extensions/deserts/tiles/DES34.jpg",
			"features": [
				["SPI", 54, 30, [9]], ["OAS", 63, 69, [2, 3, 4, 8, 9, 10]], ["ROA", 88, 53, [1, 6, 7, 9, 10]], ["ROA", 18, 56, [1, 5, 6, 8, 9]],
				["ROA", 56, 88, [1, 5, 7, 8, 10]], ["FIE", 11, 88, [3, 4, 8]], ["FIE", 10, 10, [2, 3, 9]], ["FIE", 90, 88, [2, 4, 10]],
				["DES", 32, 80, [1, 3, 4, 5]], ["DES", 25, 33, [0, 1, 2, 3, 6]], ["DES", 74, 86, [1, 2, 4, 7]]
			],
			"sides": [[6, 6, 6], [6, 2, 7], [7, 4, 5], [5, 3, 6]]
		},
		{
			"code": "DES35",
			"src": "extensions/deserts/tiles/DES35.jpg",
			"features": [
				["SPI", 46, 40, [6]], ["WEL", 71, 69, [2, 7]], ["ROA", 44, 69, [1, 3, 4, 5, 6, 7, 8, 9]], ["CIT", 10, 25, [2, 4, 5, 6, 9]],
				["FIE", 22, 88, [2, 3, 9]], ["FIE", 89, 9, [2, 3, 6]], ["DES", 76, 34, [0, 2, 3, 5]], ["DES", 74, 84, [1, 2, 8]],
				["FIE", 90, 72, [2, 7]], ["DES", 40, 84, [2, 3, 4]]
			],
			"sides": [[5, 5, 5], [5, 2, 8], [8, 2, 4], [3, 3, 3]]
		},
		{
			"code": "DES36",
			"src": "extensions/deserts/tiles/DES36.jpg",
			"features": [["PYR", 63, 23, [4]], ["SPI", 41, 70, [4]], ["CIT", 11, 26, [3, 4]], ["FIE", 90, 73, [2, 4]], ["DES", 73, 57, [0, 1, 2, 3]]],
			"sides": [[3, 3, 3], [3, 3, 3], [3, 3, 3], [2, 2, 2]]
		},
		{
			"code": "DES37",
			"src": "extensions/deserts/tiles/DES37.jpg",
			"features": [
				["SPI", 52, 47, [7]], ["CIT", 10, 63, [4, 5, 7, 8, 11]], ["ROA", 43, 79, [3, 5, 7, 9, 10]], ["CIT", 90, 36, [2, 6, 7, 9, 10]],
				["ROA", 59, 13, [1, 6, 7, 8, 11]], ["FIE", 20, 90, [1, 2, 7]], ["FIE", 80, 9, [3, 4, 7]], ["DES", 26, 68, [0, 1, 2, 3, 4, 5, 6]],
				["DES", 25, 22, [1, 4, 11]], ["DES", 78, 76, [2, 3, 10]], ["FIE", 64, 90, [2, 3, 9]], ["FIE", 36, 8, [1, 4, 8]]
			],
			"sides": [[11, 4, 6], [3, 3, 3], [10, 2, 5], [1, 1, 1]]
		},
		{
			"code": "DES38",
			"src": "extensions/deserts/tiles/DES38.jpg",
			"features": [
				["SPI", 54, 46, [5]], ["CIT", 32, 9, [3, 4, 5]], ["CIT", 60, 89, [3, 4, 5]], ["FIE", 10, 55, [1, 2, 5]], ["FIE", 90, 71, [1, 2, 5]],
				["DES", 80, 45, [0, 1, 2, 3, 4]]
			],
			"sides": [[1, 1, 1], [4, 4, 4], [2, 2, 2], [3, 3, 3]]
		},
		{
			"code": "DES39",
			"src": "extensions/deserts/tiles/DES39.jpg",
			"features": [
				["SPI", 51, 48, [7]], ["ROA", 70, 21, [3, 4, 5, 7, 9]], ["ROA", 34, 81, [3, 4, 6, 7, 8]], ["FIE", 10, 9, [1, 2, 7]],
				["FIE", 91, 73, [1, 2, 7]], ["FIE", 91, 10, [1, 9]], ["FIE", 10, 89, [2, 8]], ["DES", 65, 75, [0, 1, 2, 3, 4]],
				["DES", 18, 75, [2, 6]], ["DES", 89, 33, [1, 5]]
			],
			"sides": [[3, 1, 5], [5, 1, 4], [4, 2, 6], [6, 2, 3]]
		},
		{
			"code": "DES40",
			"src": "extensions/deserts/tiles/DES40.jpg",
			"features": [["SPI", 40, 29, [2]], ["SPI", 63, 68, [2]], ["DES", 70, 36, [0, 1, 3]], ["FIE", 11, 88, [2]]],
			"sides": [[3, 3, 3], [3, 3, 3], [3, 3, 3], [3, 3, 3]]
		}
	]
}