<?xml version="1.0" encoding="UTF-8" standalone="no"?>
<svg
   xmlns:dc="http://purl.org/dc/elements/1.1/"
   xmlns:cc="http://creativecommons.org/ns#"
   xmlns:rdf="http://www.w3.org/1999/02/22-rdf-syntax-ns#"
   xmlns:svg="http://www.w3.org/2000/svg"
   xmlns="http://www.w3.org/2000/svg"
   xmlns:sodipodi="http://sodipodi.sourceforge.net/DTD/sodipodi-0.dtd"
   xmlns:inkscape="http://www.inkscape.org/namespaces/inkscape"
   sodipodi:docname="mayor.svg"
   inkscape:version="1.0 (4035a4fb49, 2020-05-01)"
   id="svg2206"
   version="1.1"
   viewBox="0 0 228.83548 223.3913"
   height="223.3913mm"
   width="228.83548mm">
  <defs
     id="defs2200" />
  <sodipodi:namedview
     inkscape:window-maximized="0"
     inkscape:window-y="204"
     inkscape:window-x="1368"
     inkscape:window-height="994"
     inkscape:window-width="1280"
     showgrid="false"
     inkscape:document-rotation="0"
     inkscape:current-layer="layer1"
     inkscape:document-units="mm"
     inkscape:cy="517.74093"
     inkscape:cx="481.89387"
     inkscape:zoom="0.7"
     inkscape:pageshadow="2"
     inkscape:pageopacity="0.0"
     borderopacity="1.0"
     bordercolor="#666666"
     pagecolor="#ffffff"
     id="base" />
  <metadata
     id="metadata2203">
    <rdf:RDF>
      <cc:Work
         rdf:about="">
        <dc:format>image/svg+xml</dc:format>
        <dc:type
           rdf:resource="http://purl.org/dc/dcmitype/StillImage" />
        <dc:title />
      </cc:Work>
    </rdf:RDF>
  </metadata>
  <g
     id="layer1"
     inkscape:groupmode="layer"
     inkscape:label="Calque 1"
     transform="translate(-8.8195682,-11.181047)">
    <path
       sodipodi:nodetypes="cscssssscc"
       id="path2210"
       d="m 123.97619,11.339286 c 0,0 -16.80678,-1.4422173 -30.238096,17.008928 -12.339357,16.951074 -1.511905,37.797618 -1.511905,37.797618 0,0 -78.70724,8.359578 -83.1547606,39.309528 C 4.9052243,134.44765 76.13967,123.37408 65.767857,127 c -46.491071,16.25298 -41.577381,86.55655 -41.577381,92.60416 0,6.04762 1.133929,13.60715 12.85119,14.3631 11.717261,0.75595 44.60119,0.37798 53.672618,0.37798 9.07143,0 25.324406,-46.86905 25.324406,-46.86905 0,0 3.77976,-10.20536 8.31548,-7.9375"
       style="fill:none;fill-rule:evenodd;stroke:#000000;stroke-width:0.264583px;stroke-linecap:butt;stroke-linejoin:miter;stroke-opacity:1" />
    <path
       style="fill:none;fill-rule:evenodd;stroke:#000000;stroke-width:0.264583px;stroke-linecap:butt;stroke-linejoin:miter;stroke-opacity:1"
       d="m 122.49838,11.339286 c 0,0 16.80679,-1.4422173 30.23811,17.008928 12.33938,16.951074 1.51191,37.797618 1.51191,37.797618 0,0 76.21613,3.0484 83.15479,39.309528 5.96763,31.18659 -67.45967,19.3368 -56.69643,21.54464 44.2232,9.07143 41.57738,86.55655 41.57738,92.60416 0,6.04762 -1.13392,13.60715 -12.85119,14.3631 -11.71726,0.75595 -44.6012,0.37798 -53.67264,0.37798 -9.07144,0 -25.32443,-46.86905 -25.32443,-46.86905 0,0 -3.77976,-10.20536 -8.31548,-7.9375"
       id="path2214"
       sodipodi:nodetypes="cscssssscc" />
    <path
       transform="matrix(0.26458333,0,0,0.26458333,8.8195682,11.181047)"
       id="path12"
       d="M 120.4653,841.28993 C 90.245808,839.9023 80.482082,836.73587 70.118488,824.9622 60.252909,813.75432 59.259695,807.5924 59.283348,757.74093 c 0.02043,-43.05194 1.840019,-69.15139 6.971761,-100 15.255319,-91.70479 48.365491,-154.74907 101.934601,-194.0912 8.57879,-6.30041 36.55842,-21.04544 46.91844,-24.72563 2.55358,-0.9071 4.64286,-2.26386 4.64286,-3.01501 0,-2.36827 -9.96308,-3.11517 -29.94658,-2.245 -22.2924,0.97071 -74.15726,-1.45475 -95.053419,-4.44517 C 45.939121,422.23352 16.388564,407.39623 5.796673,384.5551 2.6291311,377.72439 1.9854192,374.35459 2.0389811,364.88379 2.3258284,314.16356 60.257995,269.91752 166.89387,238.97489 c 39.19207,-11.3724 87.47858,-21.65635 126.42857,-26.92645 9.42857,-1.27572 18.5439,-2.60695 20.25629,-2.95827 l 3.11344,-0.63877 -3.46372,-8.52423 C 292.12603,147.99377 296.25937,100.18135 325.159,61.920446 345.89428,34.468514 372.77347,15.365474 403.62484,6.1547761 420.2619,1.1877689 442.03731,0.88732597 459.03673,5.3902389 c 25.3018,6.7020991 53.9785,24.9316971 71.80884,45.6484151 22.10984,25.688996 31.49613,46.714887 33.92223,75.987986 1.60673,19.38655 -3.56492,49.11548 -12.26173,70.48605 -2.25483,5.54075 -3.80266,10.37111 -3.43964,10.73413 0.36302,0.36302 7.8977,1.20615 16.74374,1.87362 89.39171,6.74496 176.27588,29.95432 228.42626,61.01948 45.08675,26.85747 72.58368,67.64731 69.3008,102.80301 -4.32502,46.31559 -70.49043,69.15903 -183.44748,63.33476 -19.8407,-1.02303 -34.23494,-1.21199 -34.98764,-0.45929 -0.75268,0.75269 0.96907,1.67483 4.18504,2.24143 22.46868,3.95854 49.7941,18.23927 69.09929,36.11247 44.24011,40.95854 72.1902,114.24124 83.5257,218.9972 3.13286,28.95196 4.52126,98.39732 2.20281,110.18167 -4.14275,21.05726 -15.42125,31.43897 -38.65825,35.58442 -10.22316,1.82378 -201.79022,3.85785 -210.44349,2.2345 -19.47714,-3.65393 -50.29291,-59.07375 -86.21661,-155.05399 -5.1648,-13.7992 -10.86929,-27.98231 -12.67663,-31.51803 -7.41636,-14.5086 -14.99049,-21.40687 -23.51182,-21.41381 -12.30357,-0.01 -20.75802,11.43776 -33.58874,45.48097 -30.23393,80.21843 -53.25911,127.90446 -72.96073,151.10439 -10.802,12.72005 -4.68565,12.00281 -100.095,11.7378 -46.2384,-0.12843 -93.71267,-0.6763 -105.49838,-1.21749 z"
       style="fill:#000000;stroke-width:1.42857" />
  </g>
</svg>
