<?xml version="1.0" encoding="UTF-8" standalone="no"?>
<svg
   xmlns:dc="http://purl.org/dc/elements/1.1/"
   xmlns:cc="http://creativecommons.org/ns#"
   xmlns:rdf="http://www.w3.org/1999/02/22-rdf-syntax-ns#"
   xmlns:svg="http://www.w3.org/2000/svg"
   xmlns="http://www.w3.org/2000/svg"
   xmlns:sodipodi="http://sodipodi.sourceforge.net/DTD/sodipodi-0.dtd"
   xmlns:inkscape="http://www.inkscape.org/namespaces/inkscape"
   width="228.83548mm"
   height="223.3913mm"
   viewBox="0 0 228.83548 223.3913"
   version="1.1"
   id="svg2206"
   inkscape:version="1.0 (4035a4fb49, 2020-05-01)"
   sodipodi:docname="pig.svg">
  <defs
     id="defs2200" />
  <sodipodi:namedview
     id="base"
     pagecolor="#ffffff"
     bordercolor="#666666"
     borderopacity="1.0"
     inkscape:pageopacity="0.0"
     inkscape:pageshadow="2"
     inkscape:zoom="1.2502642"
     inkscape:cx="432.445"
     inkscape:cy="463.70836"
     inkscape:document-units="mm"
     inkscape:current-layer="layer1"
     inkscape:document-rotation="0"
     showgrid="false"
     inkscape:window-width="2560"
     inkscape:window-height="1418"
     inkscape:window-x="1272"
     inkscape:window-y="-8"
     inkscape:window-maximized="1" />
  <metadata
     id="metadata2203">
    <rdf:RDF>
      <cc:Work
         rdf:about="">
        <dc:format>image/svg+xml</dc:format>
        <dc:type
           rdf:resource="http://purl.org/dc/dcmitype/StillImage" />
        <dc:title />
      </cc:Work>
    </rdf:RDF>
  </metadata>
  <g
     transform="translate(-8.8195682,-11.181047)"
     inkscape:label="Calque 1"
     inkscape:groupmode="layer"
     id="layer1">
    <path
       sodipodi:nodetypes="cccccccccccccccccccc"
       id="path839"
       d="m 206.25611,118.70449 c -23.51432,-8.62703 -25.68836,-10.20075 -77.58524,-12.41567 -22.87764,0.67254 -39.83489,-3.99 -85.071516,24.27952 l -4.083433,-9.38072 -4.310293,12.13976 c -2.778662,4.90154 -5.557324,10.44428 -8.335986,14.70461 -7.260118,7.03891 -11.746002,10.23056 -17.2988981,9.57494 v 16.00242 c 6.6461381,-0.46576 10.0912351,5.26684 22.2858441,8.4346 16.676065,3.3815 17.56033,-2.64141 23.993066,2.87746 l 19.963448,49.38679 11.569728,0.0174 5.884836,-24.9304 c 15.383384,2.53504 10.493514,5.07008 43.162514,5.46776 32.02879,0.61141 26.07191,-1.76949 41.45529,-4.36414 l 4.9774,23.58802 18.50813,0.12432 c 5.1626,-9.92602 5.20353,-9.5927 10.36612,-19.51872 15.975,-16.90809 21.92008,-7.74029 25.73113,-44.73964 0.12385,-31.11814 -11.70291,-40.64885 -31.21214,-51.24825 z"
       style="display:none;fill:none;fill-rule:evenodd;stroke:#000000;stroke-width:0.312793px;stroke-linecap:butt;stroke-linejoin:miter;stroke-opacity:1" />
    <path
       transform="matrix(0.26458333,0,0,0.26458333,8.8195682,11.181047)"
       id="path841"
       d="m 253.25964,840.6287 c -0.43382,-0.98979 -17.34282,-42.83095 -37.57555,-92.98035 -40.69717,-100.87309 -37.22463,-93.59361 -46.90922,-98.33569 -6.14291,-3.00789 -11.68248,-3.34995 -26.30552,-1.62435 -21.30336,2.51392 -44.671195,0.45304 -64.199662,-5.66196 C 66.105692,638.21741 57.410108,634.35389 39.766463,624.91907 23.312397,616.12036 17.250197,613.77784 9.1841111,613.1016 L 3.735612,612.64483 V 583.567 554.48918 h 5.2834077 c 14.7632983,0 30.9836483,-9.05931 51.9045053,-28.98943 9.925931,-9.45588 11.049012,-11.15515 29.209346,-44.19511 9.870269,-17.95744 11.027529,-20.53765 17.936749,-39.99154 4.06215,-11.43759 7.53466,-21.24914 7.71668,-21.80347 0.18201,-0.55432 3.56904,6.54696 7.52673,15.78061 3.95768,9.23366 7.511,16.79569 7.89626,16.80452 0.38525,0.009 9.02342,-4.97108 19.19594,-11.06645 86.18423,-51.64168 149.18489,-74.62581 217.25346,-79.25918 13.08644,-0.89078 94.7181,-1.28071 106.37752,-0.50814 4.17912,0.27692 18.57607,1.04432 31.99324,1.70534 83.85018,4.131 125.78568,8.80624 161.37125,17.9907 15.75023,4.06506 27.32071,7.83069 55.69369,18.12561 20.69097,7.50756 24.46497,9.1631 36.10882,15.8398 26.17899,15.0113 39.87396,24.82879 54.65573,39.18096 5.44085,5.28273 12.50376,13.06916 15.69541,17.30318 20.84343,27.6508 31.17997,62.11305 33.14371,110.5011 0.59332,14.62132 0.46926,17.7831 -1.29388,32.96873 -5.41342,46.62372 -12.61374,73.65339 -24.1425,90.63031 -5.26105,7.74727 -12.36923,14.22343 -30.64209,27.91767 -15.94231,11.94769 -29.30081,23.27656 -37.17794,31.52929 -2.00534,2.10097 -6.10223,8.74344 -10.29236,16.68748 -3.82852,7.25847 -10.45976,19.67585 -14.73611,27.59417 -4.27634,7.91833 -9.88754,18.4461 -12.46933,23.39506 l -4.69417,8.9981 h -34.19543 -34.19543 l -0.76273,-2.99937 c -0.4195,-1.64965 -4.63478,-21.53545 -9.36729,-44.19066 -4.73251,-22.65521 -8.81223,-41.44273 -9.06603,-41.75004 -0.64483,-0.78075 -20.75798,3.38205 -34.97304,7.23833 -29.11787,7.89916 -32.12956,8.20249 -86.2629,8.6881 -56.51508,0.50697 -97.4636,-0.88936 -123.9738,-4.22747 -12.38218,-1.55914 -21.68198,-3.50879 -37.99197,-7.96481 -10.90013,-2.978 -35.03903,-8.37431 -37.46017,-8.37431 -0.35377,0 -5.64421,21.23552 -11.75651,47.19003 l -11.11327,47.19003 H 275.08975 254.0484 Z"
       style="fill:#cccccc;stroke-width:0.799831" />
  </g>
</svg>
