<?xml version="1.0" encoding="UTF-8" standalone="no"?>
<svg
   xmlns:dc="http://purl.org/dc/elements/1.1/"
   xmlns:cc="http://creativecommons.org/ns#"
   xmlns:rdf="http://www.w3.org/1999/02/22-rdf-syntax-ns#"
   xmlns:svg="http://www.w3.org/2000/svg"
   xmlns="http://www.w3.org/2000/svg"
   xmlns:sodipodi="http://sodipodi.sourceforge.net/DTD/sodipodi-0.dtd"
   xmlns:inkscape="http://www.inkscape.org/namespaces/inkscape"
   sodipodi:docname="wagon.svg"
   inkscape:version="1.0 (4035a4fb49, 2020-05-01)"
   id="svg2206"
   version="1.1"
   viewBox="0 0 228.83548 223.3913"
   height="223.3913mm"
   width="228.83548mm">
  <defs
     id="defs2200" />
  <sodipodi:namedview
     inkscape:window-maximized="1"
     inkscape:window-y="-8"
     inkscape:window-x="1272"
     inkscape:window-height="1418"
     inkscape:window-width="2560"
     showgrid="false"
     inkscape:document-rotation="0"
     inkscape:current-layer="layer1"
     inkscape:document-units="mm"
     inkscape:cy="463.70836"
     inkscape:cx="432.445"
     inkscape:zoom="1.2502642"
     inkscape:pageshadow="2"
     inkscape:pageopacity="0.0"
     borderopacity="1.0"
     bordercolor="#666666"
     pagecolor="#ffffff"
     id="base" />
  <metadata
     id="metadata2203">
    <rdf:RDF>
      <cc:Work
         rdf:about="">
        <dc:format>image/svg+xml</dc:format>
        <dc:type
           rdf:resource="http://purl.org/dc/dcmitype/StillImage" />
        <dc:title />
      </cc:Work>
    </rdf:RDF>
  </metadata>
  <g
     id="layer1"
     inkscape:groupmode="layer"
     inkscape:label="Calque 1"
     transform="translate(-8.8195682,-11.181047)">
    <path
       sodipodi:nodetypes="ccccccccccc"
       id="path832"
       d="m 88.177348,205.45021 69.095342,0.42324 c 0.21162,15.44833 14.3894,28.46288 32.20091,28.60401 15.69529,0.56437 30.1559,-13.01445 30.01482,-27.54567 h 17.67122 V 113.18282 L 9.2428121,112.9712 9.0311901,204.6035 29.55807,204.81512 c -0.258649,18.92256 11.968396,30.01511 29.697611,29.68007 17.470567,0.19403 29.01572,-12.30926 28.921667,-29.04498 z"
       style="display:none;fill:none;fill-rule:evenodd;stroke:#000000;stroke-width:0.264583px;stroke-linecap:butt;stroke-linejoin:miter;stroke-opacity:1" />
    <path
       transform="matrix(0.26458333,0,0,0.26458333,8.8195682,11.181047)"
       id="path836"
       d="m 172.49994,842.38601 c -38.39903,-4.76219 -66.0412,-23.09876 -81.485231,-54.05365 -6.534011,-13.09628 -9.888366,-26.42605 -11.345294,-45.08469 -0.497996,-6.37777 -1.075238,-11.77079 -1.28276,-11.98448 -0.207521,-0.2137 -17.683868,-0.52527 -38.836325,-0.69238 L 1.0913172,730.26696 1.6111879,716.56239 c 0.2859289,-7.53752 0.5209713,-85.0595 0.5223165,-172.27106 l 0.00245,-158.56649 214.5546456,1.7e-4 c 118.00506,9e-5 311.46417,0.23981 429.90914,0.53272 l 215.35448,0.53257 v 176.22991 176.22991 h -33.06261 -33.06256 l -0.95309,8.78756 c -1.27327,11.73958 -3.9928,20.84084 -9.68248,32.40374 -14.90501,30.29073 -44.62565,53.1748 -78.61948,60.53478 -6.65489,1.44084 -10.72734,1.77129 -21.78234,1.76748 -15.05922,-0.005 -22.0417,-0.86793 -35.39156,-4.37282 -48.30896,-12.68313 -83.30771,-51.50198 -87.06619,-96.56945 l -0.53111,-6.36839 -19.6884,-0.48542 c -10.82863,-0.26698 -69.98779,-0.71271 -131.46479,-0.99049 l -111.77638,-0.50505 v 5.79575 c 0,7.69321 -2.00607,20.85608 -4.48751,29.44487 -7.98698,27.64466 -26.56389,50.38043 -51.37258,62.87351 -7.73954,3.89745 -20.38555,8.07597 -29.3219,9.6886 -8.54485,1.54197 -32.5611,2.20152 -41.1913,1.13122 z"
       style="fill:#808080;stroke-width:0.799831" />
  </g>
</svg>
