{
	"$schema": "http://json-schema.org/draft-07/schema#",
	"$id": "effects.schema.json",
	"title": "Condition set",
	"description": "JSON description of a set of conditions.",
	"type": "array",
	"items": {
		"type": "object",
		"properties": {
			"type": {
				"description": "The effect type.",
				"type": "string",
				"enum": ["extraTurn", "scorePoints", "removePawns"]
			},
			"configuration": {
				"description": "The effect configuration.",
				"type": "object"
			},
			"conditions": {
				"description": "Condition to trigger the effect.",
				"$ref": "conditions.schema.json"
			}
		},
		"required": ["type"],
		"additionalProperties": false
	}
}