<?xml version="1.0" encoding="UTF-8" standalone="no"?>
<svg xmlns="http://www.w3.org/2000/svg" width="250px" height="250px" viewBox="0 0 228.83548 223.3913" version="1.1">
	<style type="text/css">
		.shape { fill: {{COLOR}}; }
	</style>
	<g transform="translate(-8.8195682,-11.181047)">
		<path class="shape" transform="matrix(0.26458333,0,0,0.26458333,8.8195682,11.181047)"
			d="m 459.9272,841.82175 c -74.70089,-0.69355 -84.62191,-1.04393 -88.38835,-3.12174 -5.36629,-2.96037 -10.04555,-7.95687 -11.71452,-12.50873 -0.78957,-2.15345 -0.58314,-86.73706 0.52808,-216.37468 1.00343,-117.06152 1.86258,-242.02148 1.90923,-277.68878 l 0.0848,-64.84965 -163.34167,1.05168 -163.341668,1.05166 V 234.66929 199.95708 L 79.857306,185.55343 C 170.28121,156.08267 201.22674,143.20655 217.9059,128.11278 c 11.21847,-10.15213 13.98222,-14.55612 22.20788,-35.387875 8.39958,-21.272209 21.5187,-47.614817 30.60807,-61.459616 l 7.05399,-10.744568 22.13277,-0.917983 c 12.17303,-0.504889 32.15601,-0.920103 44.40663,-0.922693 l 22.27387,-0.0047 V 10.897159 3.1189847 h 131.52186 131.52186 v 8.4852813 8.485281 h 98.99495 98.99495 V 143.78886 c 0,98.30786 -0.36286,123.5872 -1.76777,123.15321 -0.97227,-0.30035 -45.2018,-0.94031 -98.28784,-1.42214 l -96.52008,-0.87605 -0.008,274.76329 c -0.006,194.28655 -0.46047,276.42016 -1.55309,280.42015 -2.20599,8.07593 -6.87611,13.59301 -15.59308,18.42101 l -7.59409,4.2064 -31.11269,0.0741 c -17.11199,0.0407 -68.97827,-0.27743 -115.25841,-0.70711 z"
		/>
	</g>
</svg>
