<?xml version="1.0" encoding="UTF-8" standalone="no"?>
<svg xmlns="http://www.w3.org/2000/svg" width="250px" height="250px" viewBox="0 0 228.83548 223.3913" version="1.1">
	<style type="text/css">
		.shape { fill: {{COLOR}}; }
	</style>
	<g transform="translate(-8.8195682,-11.181047)">
		<path class="shape" transform="scale(0.26458333)"
			d="m 153.57143,883.56501 c -11.78572,-0.54998 -24.31782,-1.80491 -27.84911,-2.78871 -20.82917,-5.80289 -31.108829,-19.12971 -32.46451,-42.08786 l -0.681769,-11.54558 9.939989,-20 c 5.467,-11 15.41095,-29.96429 22.09767,-42.14286 49.27034,-89.7364 65.45474,-119.87773 83.22737,-155 35.67019,-70.49143 49.91803,-109.53786 45.86392,-125.69074 -1.81953,-7.24957 -18.46639,-11.5385 -69.41928,-17.88527 C 105.96423,456.66811 69.543466,445.08081 49.352231,423.49474 36.278097,409.51744 32.45476,394.06393 38.818444,380.9183 56.386106,344.62836 161.55349,298.71534 319.0152,258.59259 c 16.35121,-4.16646 30.02026,-7.86613 30.37564,-8.22153 0.35539,-0.35539 -1.01317,-4.3982 -3.04124,-8.98403 -5.31544,-12.01917 -10.33097,-31.9072 -12.28421,-48.71049 -2.05885,-17.71188 -0.14888,-36.77047 5.33631,-53.24793 13.62026,-40.9152 56.45696,-80.276069 99.88401,-91.779301 16.99942,-4.502913 38.77483,-4.20247 55.41189,0.764537 47.26429,14.110788 88.57581,55.028124 99.60239,98.651984 7.0071,27.72184 4.19011,61.004 -7.70712,91.05808 -1.96363,4.96042 -3.76818,9.84473 -4.01013,10.85402 -0.30655,1.27888 8.65265,4.14998 29.56012,9.47294 43.94481,11.18817 76.68455,20.80969 119.28571,35.05554 78.02982,26.09323 126.08756,49.40135 149.87072,72.68763 13.30018,13.0223 16.95198,22.5216 13.60212,35.3826 -2.62144,10.0644 -7.06845,16.91462 -16.68805,25.70639 -20.67277,18.89374 -52.73657,28.69573 -125.80732,38.45961 -61.6835,8.2423 -70.78108,10.45693 -73.90131,17.9898 -2.66234,6.42746 -0.69246,19.55927 5.79254,38.61489 13.24392,38.91606 38.15533,88.53921 112.85003,224.79553 11.19879,20.42857 24.93983,46.14285 30.53564,57.14285 l 10.1742,20 -0.0821,12.85715 c -0.1707,26.7012 -12.68216,40.59528 -40.71137,45.21037 -7.64517,1.2588 -39.01066,1.77658 -111.56863,1.84178 l -100.93361,0.0907 -5.49496,-4.39974 c -17.76723,-14.22602 -45.55386,-67.93975 -74.1858,-143.40695 -19.1688,-50.52453 -25.44042,-60.06903 -39.4525,-60.04104 -6.109,0.0129 -11.71986,3.80181 -17.34093,11.7122 -5.78313,8.13844 -8.58279,14.44963 -21.09946,47.5641 -29.57143,78.23499 -56.78915,130.60907 -75.15657,144.62103 l -5.17834,3.9504 -85.82639,0.13971 c -47.20457,0.0767 -95.4693,-0.31043 -107.25501,-0.86043 z"
		/>
		<path style="fill:#ffffff;" transform="matrix(1.0924763,0,0,0.91535165,-3.1750001,0.52916667)"
			d="m 110.5957,75.162109 c -8.2787,0.03779 -16.640753,1.884955 -23.919919,5.894532 -8.15153,4.643707 -14.132643,12.890935 -15.99442,22.088739 -0.947425,4.73255 -1.107006,9.62344 -0.573947,14.41711 0.756339,6.42628 3.288419,12.73165 7.698095,17.52689 4.595708,5.14472 10.900603,8.4075 17.385826,10.51291 7.280645,2.43459 14.921275,3.52535 22.265335,5.72786 1.24847,0.43762 2.69678,0.62793 3.64685,1.65227 0.38497,0.94949 -0.56717,1.78441 -1.43076,1.95406 -3.63017,1.33639 -7.49618,0.9669 -11.2866,0.79963 -7.57179,-0.52292 -14.896101,-3.02261 -21.753376,-6.30472 -2.61117,-1.18258 -5.140024,-2.55943 -7.811758,-3.59901 -1.862785,-0.65839 -4.075663,-0.54703 -5.656339,0.73151 -1.865144,1.36518 -2.579919,3.77149 -2.520146,5.9986 -0.166877,4.99761 -0.02488,10.00003 -0.02712,14.9995 0.02614,4.2808 0.06215,8.56153 0.09157,12.84231 14.056095,5.56659 29.050093,9.19373 44.230049,9.13691 5.9292,-0.0645 11.8944,-0.5467 17.66411,-1.96552 7.52799,-1.90007 14.84964,-5.64473 19.81748,-11.74639 5.47877,-6.69401 7.98609,-15.45947 7.91671,-24.02961 0.13256,-5.62099 -0.49122,-11.38582 -2.89909,-16.52915 -2.53595,-5.67742 -6.96066,-10.44055 -12.35157,-13.5188 -7.34074,-4.35823 -15.80404,-6.14292 -24.05978,-7.88062 -4.3259,-0.92675 -8.69897,-1.7147 -12.89798,-3.16995 -0.47144,-0.0763 -0.74151,-0.49361 -0.21936,-0.75922 1.00558,-0.53227 2.25985,-0.69731 3.30654,-0.91553 3.28651,-0.52387 6.76972,-0.36275 10.13024,-0.17229 7.55418,0.60152 14.75727,3.03915 21.67588,6.01726 2.53806,1.03985 5.05352,2.17249 7.66288,3.01072 1.68099,0.26175 3.27266,-1.24712 3.24835,-2.91851 0.50443,-2.78704 0.13088,-5.63101 0.27705,-8.4429 0.0235,-8.353235 0.0306,-16.706493 0.0278,-25.059762 -13.14797,-3.455481 -26.59506,-6.460655 -40.26562,-6.316911 -1.12574,-0.0068 -2.25131,0.0053 -3.37696,0.01808 z"
		/>
		<path style="fill:#000000;" transform="matrix(0.26458333,0,0,0.26458333,8.8195682,11.181047)"
			d="m 402.05143,587.31698 c -40.86046,-2.84823 -79.53575,-9.79449 -117.77511,-21.15293 l -5.39886,-1.60366 V 529.4017 c 0,-19.33728 0.18291,-35.15869 0.40647,-35.15869 0.22356,0 4.63946,1.78049 9.81312,3.95666 33.16126,13.94841 64.29908,22.6387 96.65264,26.9749 14.76979,1.97952 50.49316,1.99057 60.88184,0.0188 15.73047,-2.98561 25.05043,-6.9961 32.27723,-13.88929 6.591,-6.28676 8.31149,-10.55969 8.31884,-20.66033 0.005,-7.01182 -0.25867,-8.56262 -2.13861,-12.57362 -4.03,-8.59834 -11.71382,-14.00828 -26.98339,-18.99813 -9.4342,-3.08293 -20.28894,-5.43366 -53.65468,-11.61959 -40.31482,-7.47427 -55.84938,-11.67582 -75.41464,-20.39698 -11.75559,-5.24002 -21.00535,-11.19069 -29.0636,-18.69757 -14.86279,-13.84583 -22.06508,-28.91823 -24.37915,-51.01884 -1.05701,-10.09504 -0.0446,-23.97267 2.46451,-33.78331 9.52373,-37.23742 40.10158,-61.94488 88.64974,-71.63062 19.85506,-3.96124 26.08203,-4.43103 58.53874,-4.41638 31.01278,0.014 37.88352,0.4294 66.78589,4.0378 20.71485,2.5862 57.12639,8.84923 65.38618,11.24686 1.30492,0.37879 1.3997,2.7245 1.3997,34.64036 v 34.23406 l -14.15532,-4.75389 c -23.91532,-8.03166 -49.04231,-13.94145 -73.02625,-17.17556 -15.21667,-2.05189 -54.33797,-2.0554 -65.9518,-0.006 -26.82761,4.73424 -39.11708,14.82684 -39.13938,32.1428 -0.0108,8.39186 2.11157,13.35585 8.0186,18.75454 8.28745,7.57426 21.44158,11.28219 68.22505,19.23148 34.68822,5.8941 48.90364,8.84181 63.61138,13.1905 42.46229,12.55493 64.17558,29.51276 73.75334,57.60048 2.82178,8.27518 4.25272,18.64058 4.25104,30.7935 -0.004,30.42828 -9.14781,53.8001 -27.96248,71.47459 -18.7743,17.63657 -46.03683,28.0342 -86.40541,32.95409 -10.33003,1.25897 -56.55021,2.23971 -67.98563,1.44259 z"
		/>
	</g>
</svg>
